<?xml version="1.0" encoding="UTF-8" standalone="no"?>
<!-- Created with Inkscape (http://www.inkscape.org/) -->

<svg
        xmlns:dc="http://purl.org/dc/elements/1.1/"
        xmlns:cc="http://creativecommons.org/ns#"
        xmlns:rdf="http://www.w3.org/1999/02/22-rdf-syntax-ns#"
        xmlns:sodipodi="http://sodipodi.sourceforge.net/DTD/sodipodi-0.dtd"
        xmlns:inkscape="http://www.inkscape.org/namespaces/inkscape"
        xmlns="http://www.w3.org/2000/svg"
        width="40mm"
        height="40mm"
        viewBox="0 0 40 40"
        version="1.1"
        id="svg146414"
        inkscape:version="0.92.4 (unknown)"
        sodipodi:docname="NanoPi Neo2.svg">
    <defs
            id="defs146408"/>
    <sodipodi:namedview
            id="base"
            pagecolor="#ffffff"
            bordercolor="#666666"
            borderopacity="1.0"
            inkscape:pageopacity="0.0"
            inkscape:pageshadow="2"
            inkscape:zoom="3.959798"
            inkscape:cx="57.774856"
            inkscape:cy="60.234434"
            inkscape:document-units="mm"
            inkscape:current-layer="layer1"
            showgrid="true"
            inkscape:window-width="1920"
            inkscape:window-height="1017"
            inkscape:window-x="0"
            inkscape:window-y="27"
            inkscape:window-maximized="1">
        <inkscape:grid
                type="xygrid"
                id="grid146416"/>
    </sodipodi:namedview>
    <metadata
            id="metadata146411">
        <rdf:RDF>
            <cc:Work
                    rdf:about="">
                <dc:format>image/svg+xml</dc:format>
                <dc:type
                        rdf:resource="http://purl.org/dc/dcmitype/StillImage"/>
                <dc:title/>
            </cc:Work>
        </rdf:RDF>
    </metadata>
    <g
            inkscape:label="Layer 1"
            inkscape:groupmode="layer"
            id="layer1"
            transform="translate(0,-257)">
        <g
                id="g147008">
            <circle
                    r="1.25"
                    cy="259.29999"
                    cx="2.3"
                    id="path146418"
                    style="opacity:1;vector-effect:none;fill:none;fill-opacity:1;fill-rule:evenodd;stroke:#000000;stroke-width:0.1;stroke-linecap:butt;stroke-linejoin:miter;stroke-miterlimit:4;stroke-dasharray:none;stroke-dashoffset:0;stroke-opacity:1"/>
            <circle
                    r="1.25"
                    cy="294.70001"
                    cx="2.3"
                    id="path146418-3"
                    style="opacity:1;vector-effect:none;fill:none;fill-opacity:1;fill-rule:evenodd;stroke:#000000;stroke-width:0.1;stroke-linecap:butt;stroke-linejoin:miter;stroke-miterlimit:4;stroke-dasharray:none;stroke-dashoffset:0;stroke-opacity:1"/>
            <circle
                    r="1.25"
                    cy="294.70001"
                    cx="37.700001"
                    id="path146418-6"
                    style="opacity:1;vector-effect:none;fill:none;fill-opacity:1;fill-rule:evenodd;stroke:#000000;stroke-width:0.1;stroke-linecap:butt;stroke-linejoin:miter;stroke-miterlimit:4;stroke-dasharray:none;stroke-dashoffset:0;stroke-opacity:1"/>
            <circle
                    r="1.25"
                    cy="259.29999"
                    cx="37.700001"
                    id="path146418-6-1"
                    style="opacity:1;vector-effect:none;fill:none;fill-opacity:1;fill-rule:evenodd;stroke:#000000;stroke-width:0.1;stroke-linecap:butt;stroke-linejoin:miter;stroke-miterlimit:4;stroke-dasharray:none;stroke-dashoffset:0;stroke-opacity:1"/>
            <rect
                    y="257"
                    x="0"
                    height="40"
                    width="40"
                    id="rect146458"
                    style="opacity:1;vector-effect:none;fill:none;fill-opacity:1;fill-rule:evenodd;stroke:#ff0000;stroke-width:0.1;stroke-linecap:butt;stroke-linejoin:miter;stroke-miterlimit:4;stroke-dasharray:none;stroke-dashoffset:0;stroke-opacity:1"/>
        </g>
    </g>
</svg>
